{
  "code": 1000,
  "data": {
    "pageNumber": 1,
    "pageSize": 25,
    "total": 201,
    "pages": 9,
    "startIndex": 0,
    "nextPage": 2,
    "prePage": 1,
    "list": [
      {
        "id": 206,
        "bookId": 1,
        "chapterName": "第二百五十八章，戮尸窑",
        "preChapterId": 1,
        "nextChapterId": 0,
        "isVip": 1,
        "wordCount": 3268,
        "orderIndex": 258,
        "updateTime": 1483108036000
      },
      {
        "id": 205,
        "bookId": 1,
        "chapterName": "第二百五十七章，进墓",
        "preChapterId": 1,
        "nextChapterId": 0,
        "isVip": 1,
        "wordCount": 3166,
        "orderIndex": 257,
        "updateTime": 1483108036000
      },
      {
        "id": 204,
        "bookId": 1,
        "chapterName": "第二百五十六章，大墓入口",
        "preChapterId": 1,
        "nextChapterId": 0,
        "isVip": 1,
        "wordCount": 3329,
        "orderIndex": 256,
        "updateTime": 1483108035000
      },
      {
        "id": 203,
        "bookId": 1,
        "chapterName": "第二百五十五章，黑花鳝鱼，怪物",
        "preChapterId": 1,
        "nextChapterId": 0,
        "isVip": 1,
        "wordCount": 3465,
        "orderIndex": 255,
        "updateTime": 1483108035000
      },
      {
        "id": 202,
        "bookId": 1,
        "chapterName": "第二百五十四章，竖葬石棺",
        "preChapterId": 1,
        "nextChapterId": 0,
        "isVip": 1,
        "wordCount": 3396,
        "orderIndex": 254,
        "updateTime": 1483108035000
      },
      {
        "id": 201,
        "bookId": 1,
        "chapterName": "第二百五十三章，阵法包裹着飞虎神庙",
        "preChapterId": 1,
        "nextChapterId": 0,
        "isVip": 1,
        "wordCount": 3377,
        "orderIndex": 253,
        "updateTime": 1483108035000
      },
      {
        "id": 200,
        "bookId": 1,
        "chapterName": "第二百五十二章，阵眼",
        "preChapterId": 1,
        "nextChapterId": 0,
        "isVip": 1,
        "wordCount": 3164,
        "orderIndex": 252,
        "updateTime": 1483108035000
      },
      {
        "id": 199,
        "bookId": 1,
        "chapterName": "第二百五十一章，情景再现",
        "preChapterId": 1,
        "nextChapterId": 0,
        "isVip": 1,
        "wordCount": 3277,
        "orderIndex": 251,
        "updateTime": 1483108035000
      },
      {
        "id": 198,
        "bookId": 1,
        "chapterName": "第二百五十章，迷路",
        "preChapterId": 1,
        "nextChapterId": 0,
        "isVip": 1,
        "wordCount": 3516,
        "orderIndex": 250,
        "updateTime": 1483108034000
      },
      {
        "id": 197,
        "bookId": 1,
        "chapterName": "第二百四十九章，有粽子",
        "preChapterId": 1,
        "nextChapterId": 0,
        "isVip": 1,
        "wordCount": 3194,
        "orderIndex": 249,
        "updateTime": 1483108034000
      },
      {
        "id": 196,
        "bookId": 1,
        "chapterName": "第二百四十八章，六合之术",
        "preChapterId": 1,
        "nextChapterId": 0,
        "isVip": 1,
        "wordCount": 3150,
        "orderIndex": 248,
        "updateTime": 1483108034000
      },
      {
        "id": 195,
        "bookId": 1,
        "chapterName": "第二百四十七章，福老太大驾金樽",
        "preChapterId": 1,
        "nextChapterId": 0,
        "isVip": 1,
        "wordCount": 3246,
        "orderIndex": 247,
        "updateTime": 1483108034000
      },
      {
        "id": 194,
        "bookId": 1,
        "chapterName": "第二百四十六章，无仙派，嘟嘟",
        "preChapterId": 1,
        "nextChapterId": 0,
        "isVip": 1,
        "wordCount": 3348,
        "orderIndex": 246,
        "updateTime": 1483108034000
      },
      {
        "id": 193,
        "bookId": 1,
        "chapterName": "第二百四十五章，小贱疯了",
        "preChapterId": 1,
        "nextChapterId": 0,
        "isVip": 1,
        "wordCount": 3573,
        "orderIndex": 245,
        "updateTime": 1483108034000
      },
      {
        "id": 192,
        "bookId": 1,
        "chapterName": "第二百四十四章，梦境，不安",
        "preChapterId": 1,
        "nextChapterId": 0,
        "isVip": 1,
        "wordCount": 3179,
        "orderIndex": 244,
        "updateTime": 1483108033000
      },
      {
        "id": 191,
        "bookId": 1,
        "chapterName": "第二百四十三章，挂满死人的松树",
        "preChapterId": 1,
        "nextChapterId": 0,
        "isVip": 1,
        "wordCount": 3306,
        "orderIndex": 243,
        "updateTime": 1483108033000
      },
      {
        "id": 190,
        "bookId": 1,
        "chapterName": "第二百四十二章，进入老林子",
        "preChapterId": 1,
        "nextChapterId": 0,
        "isVip": 1,
        "wordCount": 3199,
        "orderIndex": 242,
        "updateTime": 1483108033000
      },
      {
        "id": 189,
        "bookId": 1,
        "chapterName": "第二百四十一章，三天",
        "preChapterId": 1,
        "nextChapterId": 0,
        "isVip": 1,
        "wordCount": 3222,
        "orderIndex": 241,
        "updateTime": 1483108033000
      },
      {
        "id": 188,
        "bookId": 1,
        "chapterName": "第二百四十章，小山子的遭遇（下）",
        "preChapterId": 1,
        "nextChapterId": 0,
        "isVip": 1,
        "wordCount": 3191,
        "orderIndex": 240,
        "updateTime": 1483108033000
      },
      {
        "id": 187,
        "bookId": 1,
        "chapterName": "第二百三十九章，小山子的遭遇（上）",
        "preChapterId": 1,
        "nextChapterId": 0,
        "isVip": 1,
        "wordCount": 3222,
        "orderIndex": 239,
        "updateTime": 1483108033000
      },
      {
        "id": 186,
        "bookId": 1,
        "chapterName": "第二百三十八章，狼救过我的命",
        "preChapterId": 1,
        "nextChapterId": 0,
        "isVip": 1,
        "wordCount": 3552,
        "orderIndex": 238,
        "updateTime": 1483108032000
      },
      {
        "id": 185,
        "bookId": 1,
        "chapterName": "第二百三十七章，脚踏实地",
        "preChapterId": 1,
        "nextChapterId": 0,
        "isVip": 1,
        "wordCount": 3281,
        "orderIndex": 237,
        "updateTime": 1483108032000
      },
      {
        "id": 184,
        "bookId": 1,
        "chapterName": "第二百三十六章，出口",
        "preChapterId": 1,
        "nextChapterId": 0,
        "isVip": 1,
        "wordCount": 3218,
        "orderIndex": 236,
        "updateTime": 1483108032000
      },
      {
        "id": 183,
        "bookId": 1,
        "chapterName": "第二百三十五章，弱点",
        "preChapterId": 1,
        "nextChapterId": 0,
        "isVip": 1,
        "wordCount": 3291,
        "orderIndex": 235,
        "updateTime": 1483108032000
      },
      {
        "id": 182,
        "bookId": 1,
        "chapterName": "第二百三十四章，历经曲折",
        "preChapterId": 1,
        "nextChapterId": 0,
        "isVip": 1,
        "wordCount": 3220,
        "orderIndex": 234,
        "updateTime": 1483108032000
      }
    ]
  },
  "msg": "获取数据成功"
}